{
  "project_info": {
    "project_number": "975596617318",
    "firebase_url": "https://wayti-75610.firebaseio.com",
    "project_id": "wayti-75610",
    "storage_bucket": "wayti-75610.appspot.com"
  },
  "client": [
    {
      "client_info": {
        "mobilesdk_app_id": "1:975596617318:android:a4e7bbd5c4f2049b",
        "android_client_info": {
          "package_name": "com.ntamtech.wayti"
        }
      },
      "oauth_client": [
        {
          "client_id": "975596617318-5bqus7th0nnq0m89ac1kkrvi5bl3gpii.apps.googleusercontent.com",
          "client_type": 1,
          "android_info": {
            "package_name": "com.ntamtech.wayti",
            "certificate_hash": "9d849810e7649df1c78b9aa421dd04fff1c5b45d"
          }
        },
        {
          "client_id": "975596617318-2mgpohq3qdrcsa7edc8pkccvjdnc1fr3.apps.googleusercontent.com",
          "client_type": 3
        }
      ],
      "api_key": [
        {
          "current_key": "AIzaSyDIVTwtmypHYvQRXajn2eyeKAiFxuVD8Gs"
        }
      ],
      "services": {
        "analytics_service": {
          "status": 1
        },
        "appinvite_service": {
          "status": 2,
          "other_platform_oauth_client": [
            {
              "client_id": "975596617318-2mgpohq3qdrcsa7edc8pkccvjdnc1fr3.apps.googleusercontent.com",
              "client_type": 3
            },
            {
              "client_id": "975596617318-hfjmnjdc1v4jt4i8tvb4jnnv8i3orpr3.apps.googleusercontent.com",
              "client_type": 2,
              "ios_info": {
                "bundle_id": "com.NtamTechLab.wayti"
              }
            }
          ]
        },
        "ads_service": {
          "status": 2
        }
      }
    }
  ],
  "configuration_version": "1"
}